,path,gender,number,text,result
0,train/000bee1b1d.wav,male,992597,девятьсот девяноста два пятьсот девяноста семь,992597
1,train/00a06f910a.wav,female,958380,девятьсот пятьдесят восемь триста восемьдесят,958380
2,train/00a9347c36.wav,male,914706,девятьсот четырнадцать семьсот шесть,914706
3,train/00bd5a31b9.wav,male,177872,сто семьдесят семь восемьсот семьдесят два,177872
4,train/00c3b103f1.wav,female,171852,сто семьдесят один восемьсот пятьдесят два,171852
5,train/00c7244daa.wav,male,216541,двести шестнадцать пятьсот сорок один,216541
6,train/00c9194061.wav,female,746635,семьсот сорок шесть шестьсот тридцать пять,746635
7,train/00d05d66e2.wav,female,933653,девятьсот тридцать три шестьсот пятьдесят три,933653
8,train/00e9a7e8ca.wav,female,134108,сто тридцать четыре сто восемь,134108
9,train/00e277dfff.wav,female,323100,триста двадцать три сто,323100
10,train/00ece8359e.wav,female,259480,двести пятьдесят девять четыреста восемьдесят,259480
11,train/00f5b3e9f9.wav,female,141220,сто сорок один двести двадцать,141220
12,train/00f52f387e.wav,male,611169,шестьсот одинадцать сто шестьдесят девять,611169
13,train/00f62efbce.wav,female,232200,двести тридцать два двести,232200
14,train/00fe5816dd.wav,female,208564,двести восемь пятьсот шестьдесят четыре,208564
15,train/00ff4e5334.wav,female,422606,четыреста двадцать два шестьсот шесть,422606
16,train/00ff46ab89.wav,female,181184,сто восемьдесят один сто восемьдесят четыре,181184
17,train/0a0e03cd54.wav,female,464543,четыреста шестьдесят четыре пятьсот сорок три,464543
18,train/0a1ed10f59.wav,male,281536,двести восемьдесят один пятьсот тридцать шесть,281536
19,train/0a2df43d3e.wav,female,612634,шестьсот двенядцать шестьсот тридцать четыре,612634
20,train/0a2f84a7f5.wav,male,880527,восемьсот восемьдесят пятьсот двадцать семь,880527
21,train/0a5ea040ea.wav,male,252372,двести пятьдесят два триста семьдесят два,252372
22,train/0a7af21861.wav,female,812759,восемьсот двенядцать семьсот пятьдесят девять,812759
23,train/0a7d170623.wav,female,489326,четыреста восемьдесят девять триста двадцать шесть,489326
24,train/0a9c764482.wav,female,835307,восемьсот тридцать пять триста семь,835307
25,train/0a12bfd0bf.wav,female,812229,восемьсот двенядцать двести двадцать девять,812229
26,train/0a24e08239.wav,female,436355,четыреста тридцать шесть триста пятьдесят пять,436355
27,train/0a53d0bf30.wav,female,089016,ноль восемьдесят девять ноль шестнадцать,089016
28,train/0a57a2361d.wav,female,030577,ноль тридцать пятьсот семьдесят семь,030577
29,train/0a60d8b6ae.wav,female,671759,шестьсот семьдесят один семьсот пятьдесят девять,671759
30,train/0a64fca9cc.wav,female,435820,четыреста тридцать пять восемьсот двадцать,435820
31,train/0a70acc47a.wav,female,879078,восемьсот семьдесят девять ноль семьдесят восемь,879078
32,train/0a472e44da.wav,female,174766,сто семьдесят четыре семьсот шестьдесят шесть,174766
33,train/0a565d0b2e.wav,male,476398,четыреста семьдесят шесть триста девяноста восемь,476398
34,train/0a46606712.wav,female,333400,триста тридцать три четыреста,333400
35,train/0aa0d6077b.wav,female,766715,семьсот шестьдесят шесть семьсот пятнадцать,766715
36,train/0aa60ba6c3.wav,female,266360,двести шестьдесят шесть триста шестьдесят,266360
37,train/0aa78a3e56.wav,male,753792,семьсот пятьдесят три семьсот девяноста два,753792
38,train/0aa9114d4e.wav,male,065469,ноль шестьдесят пять четыреста шестьдесят девять,065469
39,train/0aab35f4ba.wav,male,971970,девятьсот семьдесят один девятьсот семьдесят,971970
40,train/0aadd8578f.wav,male,475679,четыреста семьдесят пять шестьсот семьдесят девять,475679
41,train/0ab62c4d60.wav,male,188766,сто восемьдесят восемь семьсот шестьдесят шесть,188766
42,train/0acccefd90.wav,female,211025,двести одинадцать ноль двадцать пять,211025
43,train/0ad9b4fabc.wav,female,238158,двести тридцать восемь сто пятьдесят восемь,238158
44,train/0ad41a3ee6.wav,male,808084,восемьсот восемь ноль восемьдесят четыре,808084
45,train/0ae15ab8cb.wav,female,141460,сто сорок один четыреста шестьдесят,141460
46,train/0b1d4846f1.wav,female,214944,двести четырнадцать девятьсот сорок четыре,214944
47,train/0b4da3fe7a.wav,male,791901,семьсот девяноста один девятьсот один,791901
48,train/0b5bf0bbb9.wav,female,314288,триста четырнадцать двести восемьдесят восемь,314288
49,train/0b5e86158a.wav,male,305559,триста пять пятьсот пятьдесят девять,305559
50,train/0b6a0d9031.wav,female,022538,ноль двадцать два пятьсот тридцать восемь,022538
51,train/0b6aa14d9d.wav,male,447629,четыреста сорок семь шестьсот двадцать девять,447629
52,train/0b25f435af.wav,female,487174,четыреста восемьдесят семь сто семьдесят четыре,487174
53,train/0b30c1c51c.wav,female,851082,восемьсот пятьдесят один ноль восемьдесят два,851082
54,train/0b033d5e98.wav,male,180317,сто восемьдесят триста семнадцать,180317
55,train/0b036d643d.wav,female,147182,сто сорок семь сто восемьдесят два,147182
56,train/0b44cf447c.wav,male,901021,девятьсот один ноль двадцать один,901021
57,train/0b366ffd6c.wav,male,888475,восемьсот восемьдесят восемь четыреста семьдесят пять,888475
58,train/0b537ad3b4.wav,female,742402,семьсот сорок два четыреста два,742402
59,train/0b3547bb63.wav,female,589222,пятьсот восемьдесят девять двести двадцать два,589222
60,train/0b51350ff1.wav,female,402570,четыреста два пятьсот семьдесят,402570
61,train/0b84336c32.wav,female,970050,девятьсот семьдесят ноль пятьдесят,970050
62,train/0b636727ed.wav,male,515242,пятьсот пятнадцать двести сорок два,515242
63,train/0b93711495.wav,male,504584,пятьсот четыре пятьсот восемьдесят четыре,504584
64,train/0ba8419692.wav,male,597050,пятьсот девяноста семь ноль пятьдесят,597050
65,train/0bab2b74b9.wav,female,040707,ноль сорок семьсот семь,040707
66,train/0bb4adae14.wav,female,138070,сто тридцать восемь ноль семьдесят,138070
67,train/0bc6d85eec.wav,male,106890,сто шесть восемьсот девяноста,106890
68,train/0bd2b1c252.wav,male,711836,семьсот одинадцать восемьсот тридцать шесть,711836
69,train/0bd7bf2299.wav,male,939307,девятьсот тридцать девять триста семь,939307
70,train/0bd41ca2e6.wav,female,924533,девятьсот двадцать четыре пятьсот тридцать три,924533
71,train/0bde5ac8ab.wav,female,219205,двести девятнадцать двести пять,219205
72,train/0bf4d218da.wav,female,926631,девятьсот двадцать шесть шестьсот тридцать один,926631
73,train/0bf5c048b9.wav,female,075814,ноль семьдесят пять восемьсот четырнадцать,075814
74,train/0bf365c1eb.wav,female,357011,триста пятьдесят семь ноль одинадцать,357011
75,train/0bf596fc1b.wav,female,551490,пятьсот пятьдесят один четыреста девяноста,551490
76,train/0bfc4c8a97.wav,female,679440,шестьсот семьдесят девять четыреста сорок,679440
77,train/0c2d73a155.wav,female,521673,пятьсот двадцать один шестьсот семьдесят три,521673
78,train/0c3f301f80.wav,female,293490,двести девяноста три четыреста девяноста,293490
79,train/0c4a38cade.wav,female,104127,сто четыре сто двадцать семь,104127
80,train/0c07a0bb04.wav,male,339425,триста тридцать девять четыреста двадцать пять,339425
81,train/0c7d551259.wav,male,075861,ноль семьдесят пять восемьсот шестьдесят один,075861
82,train/0c7f8f2d62.wav,female,032614,ноль тридцать два шестьсот четырнадцать,032614
83,train/0c7f42db68.wav,female,438549,четыреста тридцать восемь пятьсот сорок девять,438549
84,train/0c8c67e2ea.wav,male,279709,двести семьдесят девять семьсот девять,279709
85,train/0c77c81028.wav,female,101632,сто один шестьсот тридцать два,101632
86,train/0c146ad6d5.wav,male,322018,триста двадцать два ноль восемнадцать,322018
87,train/0c393d5808.wav,female,597860,пятьсот девяноста семь восемьсот шестьдесят,597860
88,train/0c0397d75b.wav,female,057000,ноль пятьдесят семь ноль ноль ноль,057000
89,train/0c510ede66.wav,male,878050,восемьсот семьдесят восемь ноль пятьдесят,878050
90,train/0c726ad315.wav,male,313899,триста тринадцать восемьсот девяноста девять,313899
91,train/0c59681274.wav,male,301169,триста один сто шестьдесят девять,301169
92,train/0c89308571.wav,female,496456,четыреста девяноста шесть четыреста пятьдесят шесть,496456
93,train/0ca5cfba1c.wav,male,748255,семьсот сорок восемь двести пятьдесят пять,748255
94,train/0ca76bcccc.wav,male,486684,четыреста восемьдесят шесть шестьсот восемьдесят четыре,486684
95,train/0ca4309af1.wav,male,785940,семьсот восемьдесят пять девятьсот сорок,785940
96,train/0caf8fd72e.wav,female,508299,пятьсот восемь двести девяноста девять,508299
97,train/0cb1e4043d.wav,female,628536,шестьсот двадцать восемь пятьсот тридцать шесть,628536
98,train/0cb5da4c61.wav,female,595967,пятьсот девяноста пять девятьсот шестьдесят семь,595967
99,train/0cb307a9bf.wav,female,317113,триста семнадцать сто тринадцать,317113
